<?xml version="1.0" encoding="utf-8"?>
<!-- Generator: Adobe Illustrator 16.0.0, SVG Export Plug-In . SVG Version: 6.00 Build 0)  -->
<!DOCTYPE svg PUBLIC "-//W3C//DTD SVG 1.1//EN" "http://www.w3.org/Graphics/SVG/1.1/DTD/svg11.dtd">
<svg version="1.1" id="Layer_1" xmlns="http://www.w3.org/2000/svg" xmlns:xlink="http://www.w3.org/1999/xlink" x="0px" y="0px"
	 width="1613px" height="373px" viewBox="0 0 1613 373" enable-background="new 0 0 1613 373" xml:space="preserve">

<defs>
    <linearGradient id="linear2" x1="0%" y1="0%" x2="100%" y2="0%" gradientTransform="rotate(90)">
      <stop offset="0%"   stop-color="#abe0e1" stop-opacity="0.5"/>
      <stop offset="100%" stop-color="#abe0e1" stop-opacity="0"/>
    </linearGradient>
  </defs>

<path fill-rule="evenodd" clip-rule="evenodd" fill="url(#linear2)" d="M19.954,159.207c32.641,5.035,88.901,65.031,158.549,44.013
	c69.648-21.018,101.818-12.133,141.565,2c39.747,14.132,65.773,16.226,109.173,9.997c43.4-6.229,105.151-35.183,177.557-27.991
	c127.222,12.637,201.221-5.298,322.156-55.019c119.255-49.03,171.735-167.494,260-122c60.874,31.376,140.124,207.65,225.045,217.012
	c73.991,8.158,170.27-82.477,198.955-141.012c0,52.529-25.996,286.004-25.996,286.004H4.545
	C4.545,372.211-12.687,154.172,19.954,159.207z"/>
</svg>
